{
  "ar": "Arabic",
  "hy": "Armenian",
  "bg": "Bulgarian",
  "cs": "Czech",
  "da": "Danish",
  "nl": "Dutch",
  "en": "English",
  "fa": "Farsi",
  "fi": "Finnish",
  "fr": "French",
  "de": "German",
  "el": "Greek",
  "hi": "Hindi",
  "ur": "Urdu",
  "hu": "Hungarian",
  "it": "Italian",
  "ku": "Kurdish",
  "no": "Norwegian",
  "pl": "Polish",
  "pt": "Portuguese",
  "ro": "Romanian",
  "ru": "Russian",
  "sk": "Slovak",
  "sl": "Slovenian",
  "es": "Spanish",
  "sv": "Swedish",
  "uk": "Ukrainian",
  "ta": "Tamil",
  "tr": "Turkish"
}